module github.com/restic/restic

require (
	cloud.google.com/go/storage v1.30.1
	github.com/Azure/azure-sdk-for-go/sdk/azcore v1.4.0
	github.com/Azure/azure-sdk-for-go/sdk/storage/azblob v1.0.0
	github.com/anacrolix/fuse v0.2.0
	github.com/cenkalti/backoff/v4 v4.2.0
	github.com/cespare/xxhash/v2 v2.2.0
	github.com/elithrar/simple-scrypt v1.3.0
	github.com/go-ole/go-ole v1.2.6
	github.com/google/go-cmp v0.5.9
	github.com/hashicorp/golang-lru/v2 v2.0.1
	github.com/juju/ratelimit v1.0.2
	github.com/klauspost/compress v1.16.0
	github.com/kurin/blazer v0.5.4-0.20230113224640-3887e1ec64b5
	github.com/minio/minio-go/v7 v7.0.52
	github.com/minio/sha256-simd v1.0.0
	github.com/ncw/swift/v2 v2.0.1
	github.com/pkg/errors v0.9.1
	github.com/pkg/profile v1.7.0
	github.com/pkg/sftp v1.13.5
	github.com/pkg/xattr v0.4.10-0.20221120235825-35026bbbd013
	github.com/restic/chunker v0.4.0
	github.com/spf13/cobra v1.6.1
	github.com/spf13/pflag v1.0.5
	golang.org/x/crypto v0.7.0
	golang.org/x/net v0.9.0
	golang.org/x/oauth2 v0.7.0
	golang.org/x/sync v0.1.0
	golang.org/x/sys v0.7.0
	golang.org/x/term v0.7.0
	golang.org/x/text v0.9.0
	google.golang.org/api v0.116.0
)

require (
	cloud.google.com/go v0.110.0 // indirect
	cloud.google.com/go/compute v1.19.0 // indirect
	cloud.google.com/go/compute/metadata v0.2.3 // indirect
	cloud.google.com/go/iam v0.13.0 // indirect
	github.com/Azure/azure-sdk-for-go/sdk/internal v1.1.2 // indirect
	github.com/cpuguy83/go-md2man/v2 v2.0.2 // indirect
	github.com/dnaeon/go-vcr v1.2.0 // indirect
	github.com/dustin/go-humanize v1.0.1 // indirect
	github.com/felixge/fgprof v0.9.3 // indirect
	github.com/golang/groupcache v0.0.0-20210331224755-41bb18bfe9da // indirect
	github.com/golang/protobuf v1.5.3 // indirect
	github.com/google/pprof v0.0.0-20230111200839-76d1ae5aea2b // indirect
	github.com/google/uuid v1.3.0 // indirect
	github.com/googleapis/enterprise-certificate-proxy v0.2.3 // indirect
	github.com/googleapis/gax-go/v2 v2.8.0 // indirect
	github.com/inconshreveable/mousetrap v1.1.0 // indirect
	github.com/json-iterator/go v1.1.12 // indirect
	github.com/klauspost/cpuid/v2 v2.2.4 // indirect
	github.com/kr/fs v0.1.0 // indirect
	github.com/minio/md5-simd v1.1.2 // indirect
	github.com/modern-go/concurrent v0.0.0-20180306012644-bacd9c7ef1dd // indirect
	github.com/modern-go/reflect2 v1.0.2 // indirect
	github.com/rs/xid v1.4.0 // indirect
	github.com/russross/blackfriday/v2 v2.1.0 // indirect
	github.com/sirupsen/logrus v1.9.0 // indirect
	go.opencensus.io v0.24.0 // indirect
	golang.org/x/xerrors v0.0.0-20220907171357-04be3eba64a2 // indirect
	google.golang.org/appengine v1.6.7 // indirect
	google.golang.org/genproto v0.0.0-20230331144136-dcfb400f0633 // indirect
	google.golang.org/grpc v1.54.0 // indirect
	google.golang.org/protobuf v1.30.0 // indirect
	gopkg.in/ini.v1 v1.67.0 // indirect
	gopkg.in/yaml.v3 v3.0.1 // indirect
)

go 1.18
